<svg version="1.1" id="" xmlns="http://www.w3.org/2000/svg" xmlns:xlink="http://www.w3.org/1999/xlink" x="0px" y="0px"
	 viewBox="0 0 63 63" style="enable-background:new 0 0 63 63;" xml:space="preserve">
<polygon style="fill:#fff;" points="27.6,41.5 27.6,21.5 41.9,31.5 "/>
<g>
	<circle style="fill:none;stroke:#fff;stroke-width:3;stroke-miterlimit:10;" cx="31.5" cy="31.5" r="30"/>
</g>
</svg>
